ECON 4110: Data Exploration
…
# create binary variable both income and date 
combined_data$income_category <- ifelse(combined_data$"md_earn_wne_p10-REPORTED-EARNINGS" > 41900, 'High', 'Low')
combined_data <- combined_data %>% filter(!is.na(income_category))
combined_data$scorecard <- ifelse(combined_data$month < as.Date("2015-09-01"), "Before", "After")

new_combined <- combined_data %>% 
  group_by(income_category, month) %>% 
  summarise(standardized_index = mean(standardized_index))

`summarise()` has grouped output by 'income_category'. You can override using
the `.groups` argument.

new_combined

# A tibble: 74 × 3
# Groups:   income_category [2]
   income_category month      standardized_index
   <chr>           <date>                  <dbl>
 1 High            2013-03-01             0.702 
 2 High            2013-04-01             0.596 
 3 High            2013-05-01             0.165 
 4 High            2013-06-01            -0.232 
 5 High            2013-07-01            -0.0504
 6 High            2013-08-01             0.621 
 7 High            2013-09-01             0.819 
 8 High            2013-10-01             0.638 
 9 High            2013-11-01             0.367 
10 High            2013-12-01            -0.223 
# … with 64 more rows
…
